<svg width="112" height="34" viewBox="0 0 112 34" fill="none" xmlns="http://www.w3.org/2000/svg">
<path d="M21.2084 0H1.53225C1.53225 0 0.673235 9.39562 7.0346 9.38404C13.3844 9.38404 25.8517 9.38404 25.8517 9.38404C25.8517 9.38404 26.7107 0 21.2084 0Z" fill="#EC7206"/>
<path d="M21.2084 19.2084H1.53225C1.53225 19.2084 0.673235 9.81274 7.0346 9.81274C8.52046 9.81274 10.343 9.81274 12.27 9.81274H12.6182C18.817 9.81274 25.8517 9.81274 25.8517 9.81274C25.8517 9.81274 26.7107 19.2084 21.2084 19.2084Z" fill="#E95B10"/>
<path d="M9.79743 29.5887L11.5735 10.0328C11.5735 10.0328 2.28684 8.32982 1.70642 14.6438C1.56712 16.1267 1.40461 17.934 1.23048 19.8455C1.21887 19.9614 1.20727 20.0772 1.19566 20.1931C0.638458 26.3449 0 33.3423 0 33.3423C0 33.3423 9.28666 35.0454 9.79743 29.5887Z" fill="#E64715"/>
<path d="M31.7499 22.5089C30.1784 22.5089 29.0435 22.2184 28.4032 21.6376C27.763 21.0567 27.4429 20.2435 27.4429 19.1689C27.4429 17.252 28.0831 15.945 29.3636 15.248C30.644 14.5509 32.652 14.1734 35.3876 14.1734H36.9882C37.0755 13.7667 37.1337 13.3892 37.1337 13.0407C37.1337 12.5179 36.93 12.1403 36.5226 11.9079C36.1151 11.6756 35.3585 11.5594 34.2817 11.5594C33.7579 11.5594 33.1468 11.6466 32.5065 11.7918C31.8663 11.937 31.3425 12.1403 30.9351 12.3436L30.062 10.5719C31.2552 9.87489 32.7976 9.52637 34.6892 9.52637C36.2315 9.52637 37.3956 9.72967 38.094 10.1363C38.8216 10.5429 39.1999 11.1238 39.2581 11.937C39.3163 12.7212 39.229 13.7087 38.9671 14.8994L38.094 18.9656C37.9485 19.5464 37.9194 19.924 38.0358 20.0983C38.1522 20.2725 38.4724 20.3596 39.0544 20.3306L38.6761 22.2184C38.5888 22.2475 38.2686 22.2765 37.7448 22.2765C37.221 22.2765 36.8136 22.1894 36.5517 21.9861C36.2897 21.8118 36.1442 21.4633 36.1151 20.9986C35.213 22.0151 33.7579 22.5089 31.7499 22.5089ZM32.3028 20.621C33.5542 20.621 34.4563 20.3306 35.0675 19.7497C35.6786 19.1689 36.1442 18.1814 36.4644 16.7873L36.6099 16.0321H35.0966C33.0304 16.0321 31.6044 16.2064 30.8187 16.584C30.0329 16.9615 29.6255 17.7457 29.6255 18.9365C29.6255 19.4883 29.8292 19.8949 30.2075 20.1854C30.6149 20.4758 31.3134 20.621 32.3028 20.621Z" fill="white"/>
<path d="M44.0016 22.3928L41.9062 9.84595H44.1471L45.6312 19.6627L51.2769 9.84595H53.6633L46.2715 22.3928H44.0016Z" fill="white"/>
<path d="M53.5468 26.0232C52.7902 26.0232 52.3246 26.0232 52.1208 25.9942L52.4701 24.2225H53.4304C54.0125 24.2225 54.3908 24.1354 54.6236 23.9902C54.8564 23.845 55.0892 23.5255 55.3802 23.0027L55.9914 21.9862L54.0125 9.78784H56.2824L57.6792 19.2561L63.063 9.78784H65.4203L57.3882 23.4384C56.8062 24.4258 56.2824 25.0938 55.7585 25.4424C55.2638 25.849 54.5072 26.0232 53.5468 26.0232Z" fill="white"/>
<path d="M70.4258 22.5087C69.4072 22.5087 68.5342 22.4216 67.8357 22.2183C67.1373 22.015 66.6135 21.7536 66.2643 21.4341C65.8859 21.1146 65.6531 20.679 65.5367 20.1271C65.4203 19.5753 65.3621 19.0235 65.3912 18.4717C65.4203 17.9198 65.5367 17.2518 65.6822 16.4386L67.1082 9.81665H69.2908L67.8648 16.6419C67.7193 17.397 67.632 18.036 67.5738 18.6169C67.5447 19.1978 67.7484 19.6334 68.2432 19.9819C68.7088 20.3305 69.4945 20.5047 70.6004 20.5047C71.2115 20.5047 71.7062 20.4466 72.1137 20.3014C72.492 20.1562 72.8121 19.9238 73.0449 19.5753C73.2777 19.2268 73.4523 18.9073 73.5396 18.5878C73.656 18.2684 73.7725 17.8037 73.8889 17.1647L75.4603 9.81665H77.5848L75.9842 17.2809C75.7805 18.2684 75.5476 19.0816 75.3148 19.6624C75.082 20.2433 74.7619 20.7661 74.3545 21.2308C73.9471 21.6955 73.4232 22.015 72.783 22.1892C72.201 22.4216 71.4152 22.5087 70.4258 22.5087Z" fill="white"/>
<path d="M78.1667 22.2766L80.7568 9.96207L82.5029 9.84589L82.3283 11.1819C83.0849 10.1944 84.4818 9.67163 86.548 9.67163L86.1115 11.8209C84.7437 11.8209 83.7542 12.1403 83.114 12.7503C82.4738 13.3892 82.0373 14.3186 81.7462 15.5384L80.3203 22.2475H78.1667V22.2766Z" fill="white"/>
<path d="M93.0085 22.4799C90.3894 22.4799 88.847 21.899 88.4105 20.7663L87.6248 22.3637L86.0242 22.2185L89.7201 4.9375H91.8736L90.564 10.8334C91.408 9.9911 92.7466 9.58448 94.6091 9.58448C97.6939 9.58448 99.2363 11.0948 99.2363 14.0862C99.2363 14.8995 99.1199 15.7417 98.887 16.6711C98.4505 18.6171 97.7812 20.0983 96.879 21.0567C96.0642 21.9861 94.7546 22.4799 93.0085 22.4799ZM92.7175 20.5049C93.8816 20.5049 94.7546 20.1854 95.3658 19.5465C95.9769 18.9075 96.4134 17.8619 96.7626 16.4388C96.9372 15.5675 96.9954 14.8995 96.9954 14.4638C96.9954 13.5344 96.7626 12.8374 96.2679 12.3436C95.8023 11.8499 94.9874 11.6175 93.8816 11.6175C92.6302 11.6175 91.699 11.908 91.0587 12.4888C90.4185 13.0697 89.9238 14.1443 89.5746 15.7127C89.3999 16.4388 89.3126 17.1068 89.3126 17.7167C89.3126 18.6751 89.5746 19.3722 90.1275 19.8369C90.6804 20.2725 91.5244 20.5049 92.7175 20.5049Z" fill="white"/>
<path d="M104.475 22.5089C102.903 22.5089 101.768 22.2184 101.128 21.6376C100.488 21.0567 100.167 20.2435 100.167 19.1689C100.167 17.252 100.808 15.945 102.088 15.248C103.369 14.5509 105.377 14.1734 108.112 14.1734H109.713C109.8 13.7667 109.858 13.3892 109.858 13.0407C109.858 12.5179 109.655 12.1403 109.247 11.9079C108.84 11.6756 108.083 11.5594 107.006 11.5594C106.483 11.5594 105.871 11.6466 105.231 11.7918C104.591 11.937 104.067 12.1403 103.66 12.3436L102.787 10.5719C103.98 9.87489 105.522 9.52637 107.414 9.52637C108.956 9.52637 110.12 9.72967 110.819 10.1363C111.546 10.5429 111.924 11.1238 111.983 11.937C112.041 12.7212 111.954 13.7087 111.692 14.8994L110.819 18.9656C110.673 19.5464 110.644 19.924 110.76 20.0983C110.877 20.2725 111.197 20.3596 111.779 20.3306L111.401 22.2184C111.313 22.2475 110.993 22.2765 110.469 22.2765C109.946 22.2765 109.538 22.1894 109.276 21.9861C109.014 21.8118 108.869 21.4633 108.84 20.9986C107.938 22.0151 106.512 22.5089 104.475 22.5089ZM105.027 20.621C106.279 20.621 107.181 20.3306 107.792 19.7497C108.403 19.1689 108.869 18.1814 109.189 16.7873L109.334 16.0321H107.821C105.755 16.0321 104.329 16.2064 103.543 16.584C102.758 16.9615 102.35 17.7457 102.35 18.9365C102.35 19.4883 102.554 19.8949 102.932 20.1854C103.369 20.4758 104.038 20.621 105.027 20.621Z" fill="white"/>
<path d="M69.2617 33.7486V28.5498L69.8146 28.5207L69.8729 28.9564C70.1057 28.6079 70.6295 28.4336 71.4443 28.4336C72.0846 28.4336 72.5211 28.6079 72.783 28.9854C73.0449 29.363 73.1613 29.8567 73.1613 30.5538C73.1613 31.2218 73.0158 31.7446 72.7539 32.0931C72.492 32.4416 72.0264 32.6449 71.3861 32.6449C70.9787 32.6449 70.6586 32.6159 70.4258 32.5288C70.193 32.4416 70.0475 32.3254 69.9311 32.1512V33.7776H69.2617V33.7486ZM71.2988 31.9769C71.7354 31.9769 72.0264 31.8607 72.201 31.6284C72.3756 31.396 72.4629 31.0185 72.4629 30.5538C72.4629 30.0891 72.3756 29.7115 72.201 29.4792C72.0264 29.2468 71.7354 29.1016 71.2988 29.1016C70.8041 29.1016 70.484 29.2178 70.2803 29.4211C70.0766 29.6244 69.9893 30.0019 69.9893 30.5538C69.9893 31.1056 70.0766 31.4541 70.2803 31.6574C70.484 31.8898 70.8041 31.9769 71.2988 31.9769Z" fill="white"/>
<path d="M75.2275 32.6449C74.6746 32.6449 74.2963 32.5287 74.0926 32.3254C73.8889 32.1221 73.7725 31.8027 73.7725 31.4251C73.7725 30.8442 73.9762 30.4666 74.3545 30.2633C74.7328 30.06 75.4313 29.9439 76.4498 29.9439H76.6826C76.6826 29.6244 76.5953 29.4211 76.4789 29.2759C76.3625 29.1597 76.0715 29.1016 75.6641 29.1016C75.2275 29.1016 74.8492 29.2178 74.4709 29.4501L74.0926 28.8983C74.2672 28.7821 74.5 28.695 74.791 28.5788C75.082 28.4917 75.4022 28.4336 75.7223 28.4336C76.0715 28.4336 76.3334 28.4626 76.5662 28.5207C76.7699 28.5788 76.9445 28.6659 77.0609 28.8112C77.1773 28.9564 77.2646 29.1016 77.2937 29.3049C77.3229 29.5082 77.3519 29.7406 77.3519 30.06V31.4832C77.3519 31.6865 77.3811 31.8027 77.4102 31.8607C77.4393 31.9188 77.5557 31.9479 77.7594 31.9479V32.5578C77.7303 32.5578 77.6139 32.5578 77.4684 32.5578C77.2355 32.5578 77.09 32.5287 77.0027 32.4416C76.9154 32.3835 76.8281 32.2674 76.7699 32.0931C76.5371 32.4707 76.0133 32.6449 75.2275 32.6449ZM75.3439 32.035C75.8096 32.035 76.1588 31.9479 76.3625 31.7446C76.5662 31.5413 76.6826 31.2218 76.6826 30.7861V30.5247H76.508C75.9551 30.5247 75.5186 30.5538 75.2275 30.6119C74.9365 30.67 74.7328 30.7571 74.6455 30.8733C74.5582 30.9894 74.4709 31.1637 74.4709 31.367C74.4709 31.5994 74.5291 31.7736 74.6746 31.8607C74.8201 31.9479 75.0238 32.035 75.3439 32.035Z" fill="white"/>
<path d="M79.5928 32.5869L77.9922 28.5208H78.7488L80.0002 31.7446L81.2516 28.5208H81.9791L80.3785 32.5869H79.5928Z" fill="white"/>
<path d="M82.561 28.0271V27.1848H83.2886V28.0271H82.561ZM82.5901 32.5579V28.5208H83.2886V32.5579H82.5901Z" fill="white"/>
<path d="M84.3655 32.5578V28.5498L84.9184 28.5207L84.9766 28.8983C85.1803 28.5788 85.6459 28.4336 86.4317 28.4336C86.8391 28.4336 87.1301 28.4626 87.3047 28.5788C87.4793 28.6659 87.5957 28.7821 87.6831 28.9564C87.9159 28.6079 88.4106 28.4336 89.2254 28.4336C89.4874 28.4336 89.6911 28.4626 89.8657 28.5207C90.0403 28.5788 90.1858 28.6369 90.2731 28.724C90.3895 28.8112 90.4477 28.9273 90.5059 29.0725C90.5641 29.2178 90.5932 29.363 90.6223 29.5372C90.6514 29.6825 90.6514 29.8858 90.6514 30.0891V32.5578H89.9239V30.2343C89.9239 30.0891 89.9239 29.9439 89.9239 29.8567C89.9239 29.7696 89.8948 29.6825 89.8657 29.5663C89.8366 29.4501 89.7784 29.363 89.7202 29.3049C89.662 29.2468 89.5747 29.2178 89.4582 29.1597C89.3418 29.1306 89.1963 29.1016 89.0217 29.1016C88.7889 29.1016 88.5852 29.1306 88.4106 29.1887C88.2651 29.2468 88.1487 29.3339 88.0614 29.4501C87.9741 29.5663 87.945 29.6825 87.9159 29.8277C87.8868 29.9729 87.8868 30.1181 87.8868 30.3214V32.5578H87.1883V30.2343C87.1883 30.031 87.1883 29.8858 87.1592 29.7696C87.1592 29.6534 87.101 29.5373 87.0428 29.4501C86.9846 29.3339 86.8973 29.2468 86.7518 29.1887C86.6063 29.1306 86.4317 29.1016 86.228 29.1016C85.9952 29.1016 85.7915 29.1306 85.6459 29.1887C85.5004 29.2468 85.384 29.3339 85.2967 29.4501C85.2094 29.5663 85.1803 29.6825 85.1512 29.8277C85.1221 29.9729 85.1221 30.1181 85.1221 30.3214V32.5578H84.3655V32.5578Z" fill="white"/>
<path d="M93.445 32.6452C93.1249 32.6452 92.8339 32.6161 92.6011 32.529C92.3683 32.4419 92.1646 32.3547 92.019 32.2386C91.8735 32.1224 91.7571 31.9772 91.6698 31.7739C91.5825 31.5705 91.5243 31.3963 91.4952 31.193C91.4661 30.9897 91.437 30.7864 91.437 30.525C91.437 30.2055 91.4661 29.9441 91.5243 29.7117C91.5825 29.4794 91.6698 29.2471 91.8153 29.0437C91.9608 28.8404 92.1645 28.6952 92.4265 28.579C92.6884 28.4629 93.0376 28.4048 93.4159 28.4048C93.6487 28.4048 93.8524 28.4338 94.027 28.4919C94.2017 28.55 94.3472 28.6081 94.4636 28.6662C94.58 28.7533 94.6964 28.8404 94.7546 28.9566C94.8419 29.0728 94.9001 29.218 94.9583 29.3342C94.9874 29.4504 95.0456 29.5956 95.0456 29.7989C95.0747 29.9731 95.0747 30.1474 95.0747 30.2926C95.0747 30.4378 95.0747 30.6121 95.0747 30.8154H92.0772C92.1063 31.222 92.1936 31.5125 92.3974 31.7158C92.572 31.9191 92.9212 32.0352 93.3868 32.0352C93.6778 32.0352 93.9397 32.0062 94.1143 31.9481C94.289 31.89 94.4927 31.7739 94.6673 31.6577L95.0456 32.1514C94.6673 32.4709 94.1144 32.6452 93.445 32.6452ZM93.4159 29.0437C92.9794 29.0437 92.6593 29.1309 92.4847 29.3342C92.3101 29.5375 92.1937 29.7989 92.1646 30.1764H94.4927C94.4927 30.0312 94.4636 29.886 94.4636 29.7989C94.4636 29.7117 94.4345 29.5956 94.3763 29.5084C94.3472 29.3923 94.289 29.3051 94.2017 29.247C94.1435 29.189 94.027 29.1309 93.9106 29.1018C93.7942 29.0728 93.5905 29.0437 93.4159 29.0437Z" fill="white"/>
<path d="M96.0352 32.5578V28.5498L96.5881 28.5207L96.6463 28.8983C96.8791 28.5788 97.3738 28.4336 98.1305 28.4336C98.4506 28.4336 98.6834 28.4626 98.8871 28.5498C99.0908 28.6369 99.2363 28.7531 99.3236 28.8983C99.4109 29.0726 99.4982 29.2178 99.5273 29.4211C99.5564 29.5953 99.5855 29.8277 99.5855 30.1181V32.5868H98.8871V30.2633C98.8871 30.1181 98.8871 29.9729 98.8871 29.8858C98.8871 29.7986 98.858 29.6825 98.8289 29.5953C98.7998 29.5082 98.7416 29.4211 98.6834 29.363C98.6252 29.3049 98.5088 29.2468 98.3924 29.2178C98.276 29.1887 98.1305 29.1597 97.9268 29.1597C97.4611 29.1597 97.1701 29.2468 96.9955 29.4501C96.8209 29.6534 96.7627 29.9439 96.7627 30.3505V32.5868H96.0352V32.5578Z" fill="white"/>
<path d="M100.313 29.1598V28.5208H101.041L101.157 27.3591L101.71 27.2429V28.4918H102.787V29.1308H101.71V31.3381C101.71 31.5414 101.739 31.6866 101.826 31.7737C101.884 31.8609 102.059 31.9189 102.292 31.9189H102.787V32.5289C102.728 32.5289 102.525 32.5289 102.175 32.5289C101.71 32.5289 101.419 32.4417 101.244 32.2675C101.07 32.0932 101.011 31.8028 101.011 31.4252V29.1308H100.313V29.1598Z" fill="white"/>
<path d="M105.319 32.6449C104.62 32.6449 104.125 32.4707 103.805 32.1221C103.485 31.7736 103.34 31.2508 103.34 30.5247C103.34 29.8277 103.485 29.2759 103.805 28.9564C104.125 28.6079 104.62 28.4336 105.319 28.4336C106.017 28.4336 106.541 28.6079 106.861 28.9564C107.181 29.3049 107.327 29.8277 107.327 30.5247C107.327 31.2218 107.181 31.7736 106.861 32.1221C106.541 32.4707 106.017 32.6449 105.319 32.6449ZM104.329 31.6284C104.533 31.8607 104.853 32.006 105.319 32.006C105.784 32.006 106.104 31.8898 106.308 31.6284C106.512 31.396 106.599 31.0185 106.599 30.5247C106.599 30.031 106.512 29.6825 106.308 29.4501C106.104 29.2178 105.784 29.1016 105.319 29.1016C104.853 29.1016 104.533 29.2178 104.329 29.4501C104.125 29.6825 104.038 30.06 104.038 30.5247C104.038 30.9894 104.154 31.396 104.329 31.6284Z" fill="white"/>
<path d="M109.567 32.6449C108.869 32.6449 108.287 32.4997 107.821 32.1802L108.2 31.6284C108.636 31.8898 109.102 32.035 109.626 32.035C109.975 32.035 110.237 32.006 110.382 31.9188C110.528 31.8317 110.615 31.6865 110.615 31.4541C110.615 31.2799 110.557 31.1347 110.411 31.0766C110.266 31.0185 110.033 30.9314 109.626 30.8733C109.393 30.8442 109.218 30.7861 109.102 30.7571C108.956 30.728 108.811 30.67 108.665 30.6119C108.52 30.5538 108.403 30.4667 108.316 30.4086C108.229 30.3505 108.171 30.2343 108.112 30.0891C108.054 29.9439 108.025 29.7987 108.025 29.6244C108.025 29.2468 108.141 28.9564 108.403 28.7531C108.665 28.5498 109.044 28.4626 109.626 28.4626C110.237 28.4626 110.761 28.5788 111.168 28.8112L110.819 29.392C110.47 29.2178 110.091 29.1016 109.626 29.1016C109.276 29.1016 109.044 29.1306 108.927 29.2178C108.811 29.3049 108.723 29.4211 108.723 29.5953C108.723 29.7696 108.782 29.9148 108.898 29.9729C109.014 30.06 109.276 30.1181 109.626 30.1762C109.858 30.2053 110.062 30.2633 110.179 30.2924C110.295 30.3214 110.44 30.3795 110.615 30.4376C110.79 30.4957 110.906 30.5538 110.964 30.6409C111.052 30.7281 111.11 30.8152 111.168 30.9604C111.226 31.0766 111.255 31.2508 111.255 31.4251C111.255 31.8898 111.11 32.2093 110.848 32.3835C110.586 32.5578 110.179 32.6449 109.567 32.6449Z" fill="white"/>
</svg>
