<svg width="14" height="12" viewBox="0 0 14 12" fill="none" xmlns="http://www.w3.org/2000/svg">
<path d="M13.5 6L13.5 0L6 6L13.5 12L13.5 6Z" fill="white"/>
<path d="M7.5 6L7.5 0L0 6L7.5 12L7.5 6Z" fill="white"/>
</svg>
