<svg width="32" height="32" viewBox="0 0 32 32" fill="none" xmlns="http://www.w3.org/2000/svg">
<path opacity="0.25" d="M14 1.5C-2.40004 7.1 1.16663 19.8333 4.99996 25.5C8.19993 19.5 12 17.6667 13.5 17.5C10 15 7 7 16.5 5C25.7 7.8 21.6667 14.5 18.5 17.5C22.9 18.3 25.6667 23.1667 26.5 25.5C33 18.5 32 2 14 1.5Z" fill="white"/>
<path opacity="0.25" d="M14 18C16 16 17.5 17.1667 18 18L17 19.5L16.5 21L18.5 29.5C18.1 31.1 15 30.5 13.5 30L15.5 21L14 18Z" fill="white"/>
<path d="M16 1C13.0333 1 10.1332 1.87974 7.66647 3.52796C5.19973 5.17619 3.27713 7.51888 2.14182 10.2598C1.0065 13.0007 0.709448 16.0167 1.28823 18.9264C1.86701 21.8361 3.29562 24.5089 5.39342 26.6067C7.49121 28.7045 10.164 30.1331 13.0737 30.7119C15.9834 31.2906 18.9994 30.9936 21.7403 29.8583C24.4812 28.723 26.8239 26.8004 28.4721 24.3336C30.1204 21.8669 31.0001 18.9668 31.0001 16C30.9956 12.0232 29.4138 8.21044 26.6017 5.39835C23.7897 2.58627 19.9769 1.00447 16 1ZM21.3555 10.5404C19.399 10.1809 18.944 8.91106 18.3952 7.39578C18.5636 7.15058 18.722 6.89675 18.8704 6.63428C19.5483 7.06046 20.1229 7.63202 20.5527 8.30759C20.9825 8.98317 21.2567 9.74585 21.3555 10.5404ZM10.6389 10.5778C10.7297 9.77212 11.0015 8.99743 11.4338 8.31157C11.8662 7.62571 12.4479 7.04641 13.1356 6.61695C13.8232 6.18748 14.5991 5.91896 15.4051 5.83144C16.2111 5.74392 17.0265 5.83966 17.7903 6.11152C17.0583 7.38739 16.0225 8.46268 14.7749 9.24184C13.5273 10.021 12.1065 10.4799 10.6389 10.5778ZM17.4617 8.56062C17.7556 9.40164 18.2764 10.145 18.9665 10.7085C19.6565 11.2719 20.489 11.6336 21.3718 11.7535C21.2352 13.0806 20.612 14.3102 19.6225 15.2052C18.6329 16.1001 17.3471 16.597 16.0129 16.6C14.6788 16.6031 13.3907 16.1121 12.3971 15.2216C11.4035 14.3312 10.7747 13.1045 10.632 11.778C13.2387 11.6277 15.6861 10.4748 17.4617 8.56062ZM18.9364 29.4825L16.6579 20.9381L18.8251 18.2291C20.5582 18.7612 22.1047 19.7744 23.2846 21.1509C24.4645 22.5274 25.2294 24.2105 25.4904 26.0046C23.6648 27.7414 21.398 28.9443 18.9364 29.4825ZM16 17.8C16.512 17.8026 17.023 17.846 17.5281 17.9297L16 19.8397L14.472 17.9297C14.9771 17.846 15.4881 17.8026 16 17.8ZM13.175 18.229L15.3422 20.938L13.0637 29.4825C10.6022 28.9443 8.33547 27.7414 6.50996 26.0047C6.77078 24.2106 7.53562 22.5274 8.71552 21.1509C9.89542 19.7744 11.4419 18.7612 13.175 18.229ZM14.2516 29.6855L16 23.1289L17.7485 29.6855C16.5879 29.8383 15.4122 29.8383 14.2516 29.6855ZM26.5085 24.9306C26.0748 23.0748 25.1569 21.3671 23.8483 19.9815C22.5398 18.5959 20.8874 17.5819 19.0593 17.0428C20.3676 16.3585 21.4086 15.2552 22.0159 13.9095C22.6232 12.5638 22.7617 11.0533 22.4093 9.61952C22.057 8.18577 21.2341 6.91156 20.0722 6.00064C18.9103 5.08971 17.4765 4.59467 16 4.59467C14.5236 4.59467 13.0898 5.08971 11.9279 6.00064C10.766 6.91156 9.94312 8.18577 9.59075 9.61952C9.23839 11.0533 9.37693 12.5638 9.98423 13.9095C10.5915 15.2552 11.6325 16.3585 12.9407 17.0428C11.1128 17.582 9.46039 18.5959 8.15184 19.9814C6.84328 21.367 5.92533 23.0746 5.49149 24.9303C3.78342 22.9237 2.68562 20.4699 2.32785 17.8591C1.97008 15.2483 2.36731 12.5897 3.47258 10.1975C4.57785 7.80526 6.34493 5.77953 8.56495 4.35975C10.785 2.93996 13.3651 2.18549 16.0003 2.18552C18.6354 2.18556 21.2155 2.94009 23.4355 4.35993C25.6555 5.77977 27.4225 7.80554 28.5277 10.1978C29.6329 12.59 30.0301 15.2486 29.6723 17.8594C29.3144 20.4702 28.2166 22.924 26.5085 24.9306L26.5085 24.9306Z" fill="white" stroke="white" stroke-width="0.25"/>
<path d="M22.6 25.0001H19.6C19.4409 25.0001 19.2883 25.0633 19.1757 25.1758C19.0632 25.2883 19 25.4409 19 25.6001C19 25.7592 19.0632 25.9118 19.1757 26.0243C19.2883 26.1369 19.4409 26.2001 19.6 26.2001H22.6C22.7591 26.2001 22.9118 26.1369 23.0243 26.0243C23.1368 25.9118 23.2 25.7592 23.2 25.6001C23.2 25.4409 23.1368 25.2883 23.0243 25.1758C22.9118 25.0633 22.7591 25.0001 22.6 25.0001Z" fill="white" stroke="white" stroke-width="0.5"/>
</svg>
