<svg width="18" height="18" viewBox="0 0 18 18" fill="none" xmlns="http://www.w3.org/2000/svg">
<path opacity="0.33" d="M8.1 0V18C3.537 17.55 0 13.689 0 9C0 4.311 3.537 0.45 8.1 0ZM9.927 0V8.091H18C17.577 3.825 14.184 0.423 9.927 0ZM9.927 9.909V18C14.193 17.577 17.577 14.175 18 9.909H9.927Z" fill="black"/>
</svg>
