<svg width="18" height="14" viewBox="0 0 18 14" fill="none" xmlns="http://www.w3.org/2000/svg">
<path d="M8.1 11.375H9.9V10.5H10.8C11.295 10.5 11.7 10.1063 11.7 9.625V7C11.7 6.51875 11.295 6.125 10.8 6.125H8.1V5.25H11.7V3.5H9.9V2.625H8.1V3.5H7.2C6.705 3.5 6.3 3.89375 6.3 4.375V7C6.3 7.48125 6.705 7.875 7.2 7.875H9.9V8.75H6.3V10.5H8.1V11.375ZM16.2 0H1.8C0.801 0 0.00899999 0.77875 0.00899999 1.75L0 12.25C0 13.2212 0.801 14 1.8 14H16.2C17.199 14 18 13.2212 18 12.25V1.75C18 0.77875 17.199 0 16.2 0ZM16.2 12.25H1.8V1.75H16.2V12.25Z" fill="white"/>
</svg>
