<svg width="19" height="18" viewBox="0 0 19 18" fill="none" xmlns="http://www.w3.org/2000/svg">
<path fill-rule="evenodd" clip-rule="evenodd" d="M18.1615 9C18.1615 13.95 14.1115 18 9.1615 18C4.2115 18 0.161499 13.95 0.161499 9C0.161499 4.05 4.2115 0 9.1615 0C14.1115 0 18.1615 4.05 18.1615 9ZM11.524 9.5625H4.6615V8.4375H11.524L8.374 5.2875L9.1615 4.5L13.6615 9L9.1615 13.5L8.374 12.7125L11.524 9.5625Z" fill="white"/>
</svg>
