<svg width="18" height="18" viewBox="0 0 18 18" fill="none" xmlns="http://www.w3.org/2000/svg">
<path d="M17.55 2.22L16.16 0.540002C16.018 0.370558 15.8405 0.23437 15.64 0.141061C15.4396 0.0477521 15.2211 -0.00040157 15 2.52235e-06H3C2.53 2.52235e-06 2.12 0.210002 1.85 0.550002L0.46 2.22C0.17 2.57 0 3.01 0 3.5V16C0 16.5304 0.210714 17.0391 0.585786 17.4142C0.960859 17.7893 1.46957 18 2 18H16C17.1 18 18 17.1 18 16V3.5C18 3.01 17.83 2.57 17.55 2.22ZM9 6.5L14.5 12H11V14H7V12H3.5L9 6.5ZM2.12 2L2.94 1H14.94L15.87 2H2.12Z" fill="white"/>
</svg>
