<svg width="18" height="18" viewBox="0 0 18 18" fill="none" xmlns="http://www.w3.org/2000/svg">
<path opacity="0.33" fill-rule="evenodd" clip-rule="evenodd" d="M0 9C0 4.03223 4.03198 0 9 0C13.968 0 18 4.03223 18 9C18 13.9678 13.968 18 9 18C4.03198 18 0 13.9678 0 9ZM10.647 12.4248C10.2256 12.7056 9.73535 12.8457 9.17651 12.8457C8.57837 12.8457 8.04419 12.6831 7.57349 12.3574C7.10303 12.0322 6.74023 11.5835 6.48535 11.0112H9.32349V9.61426H6.13232C6.12183 9.46826 6.11401 9.3418 6.10913 9.23535C6.10498 9.14551 6.10303 9.06982 6.10303 9.0083C6.10303 8.85156 6.11279 8.63818 6.13232 8.36865H9.32349V6.97217H6.5C6.75488 6.3999 7.11279 5.95654 7.57349 5.64258C8.04419 5.32812 8.57837 5.1709 9.17651 5.1709C9.73535 5.1709 10.2256 5.31152 10.647 5.5918C11.0686 5.86133 11.4019 6.26514 11.647 6.80371H14C13.657 5.61426 13.054 4.68311 12.1912 4.00977C11.3381 3.33643 10.3381 3 9.19116 3C8.02441 3 6.99512 3.35889 6.10303 4.07715C5.2207 4.79541 4.60791 5.76025 4.26465 6.97217H3V8.36865H4.01465C3.99512 8.63818 3.98535 8.85156 3.98535 9.0083C3.98535 9.14307 3.99512 9.34521 4.01465 9.61426H3V11.0112H4.25C4.59302 12.2231 5.20581 13.1934 6.08813 13.9229C6.98047 14.6411 8.01465 15 9.19116 15C10.3381 15 11.3381 14.6689 12.1912 14.0068C13.054 13.334 13.657 12.397 14 11.1963H11.647C11.4019 11.7349 11.0686 12.1445 10.647 12.4248Z" fill="black"/>
</svg>
