<?xml version="1.0" encoding="utf-8"?>
<!-- Generator: Adobe Illustrator 22.0.1, SVG Export Plug-In . SVG Version: 6.00 Build 0)  -->
<svg version="1.1" id="Capa_1" xmlns="http://www.w3.org/2000/svg" xmlns:xlink="http://www.w3.org/1999/xlink" x="0px" y="0px"
	 viewBox="0 0 1400 850" style="enable-background:new 0 0 1400 850;" xml:space="preserve">
<style type="text/css">
	.st0{clip-path:url(#SVGID_2_);fill:#C7F1FF;}
	.st1{opacity:0.25;clip-path:url(#SVGID_2_);}
	.st2{fill:url(#SVGID_3_);}
	.st3{fill:url(#SVGID_4_);}
</style>
<g>
	<defs>
		<rect id="SVGID_1_" width="1400" height="850"/>
	</defs>
	<clipPath id="SVGID_2_">
		<use xlink:href="#SVGID_1_"  style="overflow:visible;"/>
	</clipPath>
	<rect class="st0" width="1400" height="850"/>
	<g class="st1">
		
			<linearGradient id="SVGID_3_" gradientUnits="userSpaceOnUse" x1="1288.24" y1="185.83" x2="105.8149" y2="185.83" gradientTransform="matrix(1 0 0 -1 0 850)">
			<stop  offset="1.000000e-02" style="stop-color:#59B0BF"/>
			<stop  offset="0.29" style="stop-color:#3B8A9D"/>
			<stop  offset="1" style="stop-color:#15383F"/>
		</linearGradient>
		<path class="st2" d="M699.2,1230.3c312.7,0,566.2-253.5,566.2-566.2S1011.9,98,699.2,98C386.5,98,133,351.5,133,664.2
			S386.5,1230.3,699.2,1230.3z"/>
		
			<linearGradient id="SVGID_4_" gradientUnits="userSpaceOnUse" x1="138.818" y1="210.6885" x2="1265.2059" y2="210.6885" gradientTransform="matrix(1 0 0 -1 0 850)">
			<stop  offset="0" style="stop-color:#40784D"/>
			<stop  offset="0.46" style="stop-color:#77BC69"/>
			<stop  offset="1" style="stop-color:#AAE2AA"/>
		</linearGradient>
		<path class="st3" d="M185.6,557.9c0.8-1.6,1.1-3.4,1.1-5l-1.6-14.5c0-1.1-0.8-1.9-2.1-2.4l-7.9-1.9c-1.3-0.3-2.4-1.9-1.9-3.2
			c0-0.3,0.3-0.5,0.3-0.8l2.1-3.2c1.6-2.4,4-3.7,6.9-3.7h4c3.2,0,5.6,2.4,6.1,5.3l4.2,34.4c0.3,2.6-1.6,5.3-4.2,5.6
			c-0.5,0-1.3,0-1.9,0l-6.3-1.6c-1.3-0.3-2.4-1.9-1.9-3.2c0-0.3,0-0.5,0.3-0.5L185.6,557.9z M201,592.5l3.2,0.8
			c1.3,0.3,2.4,1.1,3.2,2.4l0.5,1.1c1.6,2.4,4.8,3.2,7.4,1.6c1.1-0.5,1.9-1.6,2.1-2.6l0.5-1.9c0.5-1.9,0.3-4-1.1-5.3l-7.7-8.5
			c-2.1-2.1-5.3-2.1-7.4-0.3c-0.3,0.3-0.3,0.3-0.5,0.5l-3.2,4c-1.9,2.4-1.6,5.6,0.8,7.4C199.6,592.2,200.2,592.5,201,592.5z
			 M681.7,170.7l14.8-10.8c2.1-1.6,2.4-4.5,0.8-6.3c-0.5-0.8-1.3-1.1-1.9-1.6l-1.6-0.5c-1.9-0.8-3.4-1.9-5-3.2l-0.5-0.5
			c-2.4-2.6-6.1-4.2-9.5-4.2h-26.4c-3.4,0-6.9,0.8-9.8,2.6l-4.8,2.9c-6.9,4.2-15.1,6.6-23.3,6.6h-7.9c-2.1,0-4.2,0.8-5.8,2.4
			l-2.1,2.1c-1.1,1.1-1.1,2.6,0,3.7c0.5,0.5,1.1,0.8,1.6,0.8l11.6,1.3c1.3,0.3,2.4,1.3,2.4,2.6v1.6c0,0.8-0.5,1.6-1.3,2.1l-10.8,7.1
			c-1.6,1.1-2.4,3.2-1.6,5c1.6,4,0.8,8.7-2.4,11.9l-1.1,1.1c-2.4,2.4-5.8,4-9.3,4h-3.4c-4.2,0-8.5,2.1-10.8,5.6l-19,27.2
			c-1.9,2.4-2.4,5.6-1.6,8.5l2.4,9.3c0.8,2.9,3.4,4.5,6.3,4c1.1-0.3,1.9-0.8,2.6-1.3l6.3-6.3c2.4-2.4,5.3-3.7,8.7-3.7h3.2
			c2.9,0,5.6-1.3,7.4-3.7l5.8-7.7c4.5-5.8,11.6-9,19-8.5l8.2,0.5c3.2,0.3,6.1-1.3,7.4-4l2.1-3.7c2.9-5.3,8.5-8.5,14.5-8.5h11.1
			c4.2,0,7.9-1.9,10.3-5.3l13.2-18c1.9-2.4,1.6-5.8-0.5-7.9c-1.9-2.1-1.9-5,0.3-7.1C681.5,171,681.7,170.7,681.7,170.7z
			 M175.6,448.4l2.4-1.1c6.9-3.2,15.3-0.3,18.5,6.9c1.3,2.6,1.6,5.6,1.1,8.5l-6.1,31.2c-0.8,4,1.9,7.9,5.8,8.7
			c0.5,0,1.1,0.3,1.3,0.3c2.4,0,4.5-1.6,5.3-4l15.1-47.1c4-12.4,14.3-21.7,26.7-24.3l7.9-1.9c9.3-2.1,16.9-8.5,20.4-17.5l6.9-17.5
			c3.7-9.8,13.8-15.6,24.1-13.8l9.5,1.6c9,1.6,17.7-4.5,19.3-13.5c0.3-1.1,0.3-2.1,0.3-2.9c0-2.4,1.6-4.2,4-4.8l24.1-4.5
			c2.4-0.5,4.8,1.3,5.3,3.7c0.3,1.3-0.3,2.9-1.3,4l-3.7,3.7c-1.1,1.1-1.1,2.6,0,3.7l4.8,4.8c0.8,0.8,2.1,1.1,3.2,0.5l32.5-18
			c1.3-0.8,1.9-2.4,1.1-3.7c-0.5-0.8-1.3-1.3-2.4-1.3h-4.8c-1.6,0-2.6-1.1-2.6-2.6c0-0.5,0-0.8,0.3-1.3l5.3-10.3
			c2.1-4,0.5-8.7-3.4-10.6c-1.1-0.5-2.4-0.8-3.4-0.8h-6.1c-1.6,0-2.6-1.3-2.6-2.6c0-0.8,0.5-1.9,1.3-2.1l6.3-4
			c7.9-5,17.7-6.1,26.4-3.2l12.2,4.2c4.8,1.6,10,1.3,14.5-0.8l21.9-10c6.6-3.2,10.3-10,9-17.2l-0.5-2.4c-1.1-5.3,0-10.8,2.9-15.6
			l13-20.4c0.8-1.3,0.5-2.9-0.8-3.7c-0.5-0.5-1.3-0.5-2.1-0.3l-10.8,3.2c-1.3,0.5-2.9-0.3-3.2-1.9c-0.3-0.8,0-1.3,0.3-2.1l8.7-15.6
			c0.8-1.3,0.3-2.9-1.1-3.7l-0.8-0.5c-4.5-2.1-9.5-1.6-13.5,1.6l-35.7,29.9c-4.5,3.7-9.3,6.9-14.5,9.3l-19.6,9
			c-2.6,1.1-5.8-0.5-6.9-3.2c-0.5-1.9-0.3-4,1.1-5.3l9-7.9c3.7-3.4,5-9,2.6-13.8c-4-8.2-1.1-17.7,6.6-22.5l15.1-9.5
			c8.2-5,17.2-8.2,26.7-9.5l38.3-4.8c5.8-0.8,11.4-2.6,16.1-5.8l22.2-13.5c2.9-1.9,6.6-1.6,9.3,0.5l4.8,3.7c1.1,0.8,1.3,2.6,0.5,3.7
			c0,0,0,0,0,0.3l-14,15.6c-0.5,0.5-1.1,0.8-1.6,0.8l-12.2,1.1c-4.5,0.3-8.7,2.6-11.6,6.1l-2.1,2.6c-3.4,4.2-4.5,9.8-2.6,15.1
			c0.5,1.6,2.4,2.4,4,1.9c0.5-0.3,1.1-0.8,1.6-1.3l2.6-4c2.9-4.5,7.9-7.1,13.2-6.9c2.9,0.3,5.8-0.5,8.2-2.4l24.6-16.9
			c3.4-2.4,6.1-5.3,7.9-9l6.1-12.4c2.4-4.8,0.5-10.6-4.2-13l-11.9-5.8c-6.1-2.9-13-2.9-18.8,0.3l-34.4,18.2c-0.8,0.3-1.6,0.3-2.4,0
			c-2.4-1.1-3.4-3.7-2.4-6.1c0.5-1.1,1.1-1.6,2.1-2.1l25.9-14.3c0.8-0.5,1.3-1.3,1.3-2.1l0.5-7.1c0-1.6-1.1-2.6-2.4-2.9h-0.3h-14.8
			c-5.8,0-10.8,4-12.2,9.8c-0.3,1.3-1.9,2.4-3.2,2.1l-26.4-5.8C333.4,208.8,230.3,315.6,175.6,448.4z M456.7,329.4
			c1.1-0.8,1.6-2.4,0.8-3.7l-0.5-1.1c-1.1-2.4-4-3.2-6.3-2.1h-0.3l-12.4,7.1c-2.9,1.6-6.3,2.1-9.5,1.3l-5.8-1.6
			c-1.6-0.5-3.2,0.5-3.7,2.1c-0.3,0.8,0,1.9,0.5,2.4l13.8,20.1c1.6,2.4,5,3.2,7.7,1.3c0.3,0,0.3-0.3,0.5-0.5l14-12.4
			c1.3-1.1,1.6-2.9,0.5-4.2c-0.5-0.5-1.1-0.8-1.6-1.1c-1.6-0.5-2.6-2.1-2.1-3.7c0.3-0.5,0.5-1.1,1.1-1.6L456.7,329.4z M1138.7,962.7
			c0.8-1.3,0.8-3.2,0-4.5c-1.3-2.1-4-2.6-5.8-1.3c-0.3,0.3-0.8,0.5-1.1,0.8l-31.2,38.3c-1.6,1.9-4.2,2.1-6.1,0.5
			c-4-3.4-4.5-9.5-1.1-13.8l7.4-8.7c10.3-12.2,19-25.4,26.4-39.7c2.4-4.5,4-9.5,4.8-14.8l0.8-4.5c1.3-8.5,4.2-16.4,8.5-23.8
			c1.6-2.4,1.9-5.3,0.8-7.9c-1.6-3.4-5.5-5-9-3.4c-1.6,0.8-2.9,1.9-3.4,3.4l-17.7,39.4c-6.6,14.8-14.8,29.1-24.9,42l-10.6,14
			c-2.4,3.2-4,6.6-4.8,10.6l-1.6,19.8c-0.5,6.3-3.2,12.4-7.4,17.2l-5.3,5.8c-4.8,5-7.9,11.4-9,18.3l-1.3,7.4c-0.5,2.4,1.1,4.5,3.4,5
			c1.3,0.3,2.6-0.3,3.4-1.1l29.6-25.9c12.4-10.8,23.3-23.5,32.3-37.3L1138.7,962.7z M242.7,724.2c-2.6-9.8-7.9-18.8-15.3-25.9
			l-22.5-21.2c-2.1-2.1-5.6-1.9-7.4,0.3c-0.5,0.5-0.8,1.1-1.1,1.6l-1.6,3.7c-1.1,2.6-4.2,4-6.9,2.9c-2.1-0.8-3.4-2.6-3.4-5v-3.4
			c0-8.2-4.2-15.9-11.4-19.8c-3.2-1.9-7.1-0.8-9,2.4c-0.5,0.8-0.8,1.6-0.8,2.4l-2.4,16.1c-3.2,21.9-10.3,43.4-20.6,63.2l-1.6,3.2
			c25.4,176.4,132.2,330.5,288.5,416.2l-29.4-68.2c-5-11.6,0.5-25.1,12.2-29.9h0.3c9.8-4.2,15.6-14.5,14.3-25.1l-3.2-22.2
			c-1.3-9.8,0.3-19.6,4.8-28.6l7.4-14.8c4.5-9.3,5.6-19.6,2.9-29.4c-3.7-13.5-11.4-25.1-22.2-33.8l-19-15.3c-3.4-2.6-6.9-5-10.8-7.1
			l-34.4-17.7c-18.8-9.8-33.8-25.1-43.1-43.9l-17.2-34.4c-4.2-8.5-11.9-14.8-21.2-17.5c-6.3-1.9-11.4-6.9-13.5-13.2L242.7,724.2z
			 M847.8,117.8c-2.1,1.6-3.2,4.5-2.1,6.9l14,35.2c0.5,1.3,1.6,2.4,2.9,3.2l36.5,18.2c2.9,1.6,4,5,2.6,7.9c-1.1,2.1-2.9,3.2-5.3,3.2
			h-26.7c-6.9,0-13.5,1.9-19.3,5.8l-1.9,1.1c-8.7,5.8-20.1,5.8-29.1,0.5l-7.7-4.5c-3.7-2.4-8.2-2.9-12.4-2.1l-8.2,1.9
			c-5.6,1.3-10,5-12.2,10l-27.8,60.6c-1.1,2.1-0.5,4.8,1.1,6.6l8.7,9.5c1.9,2.1,5,2.6,7.4,1.1l7.7-4.5c2.4-1.3,5.3-1.1,7.4,1.1
			l10.6,11.1c2.4,2.4,6.1,2.4,8.5,0.3c0.8-0.8,1.3-1.9,1.6-2.9l4.5-18.2c0.5-1.9,0-3.7-1.1-5.3l-13.2-16.1c-1.3-1.6-1.6-4-0.8-5.8
			l2.1-5c1.1-2.9,4.2-4.2,7.1-3.4l14.3,4.2c1.9,0.5,3.4,2.1,4,4.2l4.5,16.1c0.8,2.6,3.2,4.5,6.1,4.2l9.5-0.5
			c3.2-0.3,6.1,2.4,6.3,5.6c0.3,2.4-1.1,4.5-3.2,5.6l-5,2.6c-1.9,1.1-3.2,3.2-3.2,5.3v25.4c0,3.2-2.6,5.8-5.8,5.8h-51.6
			c-1.6,0-2.9,0.5-4,1.6l-56.3,53.7c-1.6,1.6-2.1,3.7-1.6,5.8l9.3,37c0.8,3.2-1.1,6.3-4.2,7.1c-0.5,0-1.1,0.3-1.3,0.3H683
			c-2.9,0-5.6,2.1-5.8,5l-6.3,45.2c-0.5,2.9,1.6,5.8,4.5,6.6l30.1,7.4c1.1,0.3,2.1,0.3,3.2,0l26.7-9c2.1-0.8,3.7-2.6,4-4.8l4-26.4
			c0.3-2.6,2.4-4.5,5-5l8.7-1.3c2.4-0.3,4.5-2.1,5-4.8l3.2-14.8c0.8-3.2,3.7-5.3,7.1-4.5c0.3,0,0.3,0,0.5,0l11.4,3.4
			c2.9,0.8,5.8-0.5,7.1-3.2l1.9-4.2c1.3-2.9,4.8-4.2,7.9-2.9c0.5,0.3,1.1,0.5,1.3,0.8l47.3,39.9c1.1,0.8,1.6,2.1,2.1,3.2
			c0.8,3.2,3.7,5.3,7.1,4.5c2.1-0.5,4-2.1,4.5-4.2l1.6-5.8c0.5-2.1,0-4.2-1.3-5.8l-16.7-17.7c-2.1-2.4-2.1-6.1,0.3-8.5
			c1.9-1.6,4.5-2.1,6.6-1.1l18.8,9c0.8,0.5,1.6,1.1,2.1,1.9l34.6,46.3c1.9,2.6,5.6,3.2,8.2,1.3c0.3-0.3,0.5-0.3,0.5-0.5l9-9
			c1.3-1.3,3.2-1.9,5-1.6l47.9,6.1c1.3,0.3,2.9-0.3,4-1.1l12.4-8.2c2.6-1.9,6.4-1.1,8.2,1.6c0.3,0.3,0.3,0.5,0.3,0.5l7.4,15.1
			c0.8,1.6,0.8,3.7,0,5.3l-7.7,14.5c-1.3,2.9-0.3,6.3,2.6,7.9l39.9,20.4c2.1,1.1,3.4,3.4,3.2,6.1l-4.5,33.3
			c-0.3,1.3,0.3,2.9,1.1,4.2l60.3,88.3c0.5,0.5,0.8,1.3,0.8,2.1l6.6,32.3c0.8,3.2,4,5.3,7.1,4.5c1.3-0.3,2.4-0.8,3.2-1.9l40.2-44.4
			c0.5-0.8,1.1-1.6,1.3-2.6l14.8-58.4c0.3-1.6,0.3-3.2-0.5-4.5l-22.2-37c-1.6-2.9-5.3-3.7-8.2-2.1c-0.3,0-0.3,0.3-0.5,0.3
			l-23.5,16.9c-2.4,1.9-5.8,1.3-7.7-0.8l-25.4-26.4c-1-1.1-1.6-2.4-1.6-4l-0.5-19.6c0-3.2,2.4-6.1,5.8-6.1c1.8,0,3.7,0.8,4.8,2.4
			l11.9,14.8c1.3,1.6,3.4,2.4,5.6,2.1l60-9.5c1.6-0.3,3.4,0.3,4.8,1.3l41.3,35.2c1.1,0.8,1.6,2.1,1.8,3.4l23.3,115.3
			c0,0.3,0,0.5,0,0.5l8.5,89.6c5-30.1,7.4-60.8,7.4-91.5C1265.3,402.9,1088.4,183.1,847.8,117.8z M710.3,832.4l69.8-11.6
			c17.7-2.9,36,0.3,51.6,9c13,7.1,17.7,23.3,10.8,36.5l-4,7.4c-5.3,10.3-4.8,22.5,1.6,32.3l19.3,29.4c10.3,15.6,11.6,35.4,3.4,52.4
			l-13.8,28.6c-4.8,10-6.1,21.7-3.2,32.5l14,53.9c1.9,7.4,2.1,15.1,0.5,22.5l-3.4,17.2c-0.3,1.3,0.5,2.9,2.1,3.2c0.5,0,0.8,0,1.3,0
			l70.3-23c20.1-6.6,37.6-19.6,50-36.8l88.1-124.8c4.5-6.3,6.9-14,6.9-21.7c0-37.6,11.4-74.3,32.8-105.2l55.3-80.4
			c0.3-0.5,0.5-1.1,0.5-1.6v-44.4c0-5.8-4.8-10.6-10.6-10.6c-1.1,0-2.1,0.3-2.9,0.5l-24.1,7.9c-10.8,3.4-22.2-1.9-26.4-12.4
			l-6.6-16.9c-5.5-14-12.7-27.5-21.4-39.9l-75.6-109.2c-0.8-1.3-0.5-2.9,0.8-3.7c0.5-0.5,1.3-0.5,2.1-0.3l7.9,1.9
			c1.3,0.3,2.9-0.5,3.2-1.9c0.3-0.8,0-1.6-0.5-2.4L996.9,505c-3.4-4.2-9.8-4.8-14-1.3c-0.3,0.3-0.8,0.5-1.1,1.1l-20.6,23
			c-0.8,1.1-2.4,1.1-3.4,0.5l-9.8-6.6c-12.4-8.2-28.3-9-41.3-2.1l-21.9,11.6c-11.6,6.1-25.7,5.3-36.5-2.4l-10.6-7.4
			c-10.6-7.4-16.4-19.8-15.6-32.5c0.5-7.4-5-13.8-12.4-14.3c-1.3,0-2.4,0-3.7,0.3l-91.2,18.5c-9.5,1.9-18.2,6.3-25.1,13l-6.3,5.8
			c-7.4,6.9-12.4,15.9-14.5,25.9l-3.7,18c-1.9,9-8.2,16.7-16.9,19.8c-21.4,8.2-37.6,25.9-44.2,47.9l-11.4,38.1
			c-3.2,10.6-3.7,21.4-1.9,32.3l8.7,49.2c2.1,11.6,7.9,21.9,16.7,29.9l53.7,47.9C680.9,830.2,695.7,834.7,710.3,832.4z"/>
	</g>
</g>
</svg>
